2022-02-20 12:47:53.54 Server      Microsoft SQL Server 2019 (RTM-CU15) (KB5008996) - 15.0.4198.2 (X64) 
	Jan 12 2022 22:30:08 
	Copyright (C) 2019 Microsoft Corporation
	Developer Edition (64-bit) on Linux (Ubuntu 20.04.3 LTS) <X64>
2022-02-20 12:47:53.55 Server      UTC adjustment: 0:00
2022-02-20 12:47:53.55 Server      (c) Microsoft Corporation.
2022-02-20 12:47:53.55 Server      All rights reserved.
2022-02-20 12:47:53.56 Server      Server process ID is 336.
2022-02-20 12:47:53.56 Server      Logging SQL Server messages in file '/var/opt/mssql/log/errorlog'.
2022-02-20 12:47:53.56 Server      Registry startup parameters: 
	 -d /var/opt/mssql/data/master.mdf
	 -l /var/opt/mssql/data/mastlog.ldf
	 -e /var/opt/mssql/log/errorlog
2022-02-20 12:47:53.58 Server      Error: 17113, Severity: 16, State: 1.
2022-02-20 12:47:53.58 Server      Error 87(The parameter is incorrect.) occurred while opening file '/var/opt/mssql/data/master.mdf' to obtain configuration information at startup. An invalid startup option might have caused the error. Verify your startup options, and correct or remove them if necessary.
